,Реэстр платежів за 2016-10-18 в розрізі квартир. Установа ОСББ 'БУЛЬВАР СВОБОДИ 8',,,,,,,,,,,
,,Особовий рахунок,Ареса,П І Б,,Послуга,Сума платежу грн.,Сума перерах. грн.,Сума збору грн.,ЦМСУ,Приймальник,ЖЕК
Пункт прийому,,,,,УкрПошта,,,,,,,
,,8702,СВОБОДИ БУЛЬВ. 8/2,,,Утрим.буд.,2.99,2.96,0.03,0.00,0.03,0.00
,,8702,СВОБОДИ БУЛЬВ. 8/2,,,Хол.вода,7.78,7.70,0.08,0.00,0.08,0.00
,,8702,СВОБОДИ БУЛЬВ. 8/2,,,Домофон,7.00,6.93,0.07,0.00,0.07,0.00
,,8702,СВОБОДИ БУЛЬВ. 8/2,,,Водовідвед,6.12,6.06,0.06,0.00,0.06,0.00
,,8702,СВОБОДИ БУЛЬВ. 8/2,,,ВивезенТПВ,12.00,11.88,0.12,0.00,0.12,0.00
,,8727,СВОБОДИ БУЛЬВ. 8/27,,,Утрим.буд.,173.75,172.01,1.74,0.00,1.74,0.00
,,8727,СВОБОДИ БУЛЬВ. 8/27,,,Домофон,7.00,6.93,0.07,0.00,0.07,0.00
,,8727,СВОБОДИ БУЛЬВ. 8/27,,,Гараж,10.00,9.90,0.10,0.00,0.10,0.00
,,8727,СВОБОДИ БУЛЬВ. 8/27,,,ВивезенТПВ,12.00,11.88,0.12,0.00,0.12,0.00
,,8727,СВОБОДИ БУЛЬВ. 8/27,,,Фонд ЗП,100.48,99.48,1.00,0.00,1.00,0.00
,,8759,СВОБОДИ БУЛЬВ. 8/59,Гуцал Ю. А.,,Утрим.буд.,94.88,93.93,0.95,0.00,0.95,0.00
,,8759,СВОБОДИ БУЛЬВ. 8/59,Гуцал Ю. А.,,Домофон,7.00,6.93,0.07,0.00,0.07,0.00
,,8759,СВОБОДИ БУЛЬВ. 8/59,Гуцал Ю. А.,,ВивезенТПВ,6.00,5.94,0.06,0.00,0.06,0.00
,,,,,,,447.00,442.53,4.47,0.00,4.47,0.00
,,Всього,,,,,447.00,442.53,4.47,0.00,4.47,0.00
