,Реэстр платежів за 2016-10-18 в розрізі квартир. Установа ОСББ 'ПОДОЛЯНКА-6',,,,,,,,,,,
,,Особовий рахунок,Ареса,П І Б,,Послуга,Сума платежу грн.,Сума перерах. грн.,Сума збору грн.,ЦМСУ,Приймальник,ЖЕК
Пункт прийому,,,,,ОБ10001/01,,,,,,,
,,9007,СВОБОДИ БУЛЬВ. 6/4/207,Правдюк Н. I.,,Утрим.буд.,105.20,104.15,1.05,0.00,1.05,0.00
,,9007,СВОБОДИ БУЛЬВ. 6/4/207,Правдюк Н. I.,,Хол.вода,38.88,38.49,0.39,0.00,0.39,0.00
,,9007,СВОБОДИ БУЛЬВ. 6/4/207,Правдюк Н. I.,,Домофон,5.95,5.89,0.06,0.00,0.06,0.00
,,9007,СВОБОДИ БУЛЬВ. 6/4/207,Правдюк Н. I.,,Водовідвед,30.60,30.29,0.31,0.00,0.31,0.00
,,9007,СВОБОДИ БУЛЬВ. 6/4/207,Правдюк Н. I.,,ВивезенТПВ,6.62,6.55,0.07,0.00,0.07,0.00
,,,,,,,187.25,185.37,1.88,0.00,1.88,0.00
Пункт прийому,,,,,УкрПошта,,,,,,,
,,8803,СВОБОДИ БУЛЬВ. 6/4/3,,,Утрим.буд.,79.02,78.23,0.79,0.00,0.79,0.00
,,8803,СВОБОДИ БУЛЬВ. 6/4/3,,,Хол.вода,18.14,17.96,0.18,0.00,0.18,0.00
,,8803,СВОБОДИ БУЛЬВ. 6/4/3,,,Домофон,5.95,5.89,0.06,0.00,0.06,0.00
,,8803,СВОБОДИ БУЛЬВ. 6/4/3,,,Водовідвед,14.28,14.14,0.14,0.00,0.14,0.00
,,8803,СВОБОДИ БУЛЬВ. 6/4/3,,,ВивезенТПВ,0.55,0.54,0.01,0.00,0.01,0.00
,,8841,СВОБОДИ БУЛЬВ. 6/4/41,Жовмір О. В.,,Утрим.буд.,99.00,98.01,0.99,0.00,0.99,0.00
,,8841,СВОБОДИ БУЛЬВ. 6/4/41,Жовмір О. В.,,Домофон,5.95,5.89,0.06,0.00,0.06,0.00
,,8841,СВОБОДИ БУЛЬВ. 6/4/41,Жовмір О. В.,,ВивезенТПВ,6.62,6.55,0.07,0.00,0.07,0.00
,,8886,СВОБОДИ БУЛЬВ. 6/4/86,Ліщук М. В.,,Утрим.буд.,183.20,181.37,1.83,0.00,1.83,0.00
,,8886,СВОБОДИ БУЛЬВ. 6/4/86,Ліщук М. В.,,Домофон,5.95,5.89,0.06,0.00,0.06,0.00
,,8886,СВОБОДИ БУЛЬВ. 6/4/86,Ліщук М. В.,,Водовідвед,45.90,45.44,0.46,0.00,0.46,0.00
,,8886,СВОБОДИ БУЛЬВ. 6/4/86,Ліщук М. В.,,ВивезенТПВ,26.48,26.22,0.26,0.00,0.26,0.00
,,8887,СВОБОДИ БУЛЬВ. 6/4/87,Щур I. Б.,,Утрим.буд.,182.60,180.77,1.83,0.00,1.83,0.00
,,8887,СВОБОДИ БУЛЬВ. 6/4/87,Щур I. Б.,,Хол.вода,23.34,23.11,0.23,0.00,0.23,0.00
,,8887,СВОБОДИ БУЛЬВ. 6/4/87,Щур I. Б.,,Домофон,5.95,5.89,0.06,0.00,0.06,0.00
,,8887,СВОБОДИ БУЛЬВ. 6/4/87,Щур I. Б.,,Водовідвед,18.36,18.18,0.18,0.00,0.18,0.00
,,8887,СВОБОДИ БУЛЬВ. 6/4/87,Щур I. Б.,,ВивезенТПВ,6.62,6.55,0.07,0.00,0.07,0.00
,,8908,СВОБОДИ БУЛЬВ. 6/4/108,,,Утрим.буд.,145.60,144.14,1.46,0.00,1.46,0.00
,,8908,СВОБОДИ БУЛЬВ. 6/4/108,,,Хол.вода,19.44,19.25,0.19,0.00,0.19,0.00
,,8908,СВОБОДИ БУЛЬВ. 6/4/108,,,Домофон,5.95,5.89,0.06,0.00,0.06,0.00
,,8908,СВОБОДИ БУЛЬВ. 6/4/108,,,Водовідвед,15.30,15.15,0.15,0.00,0.15,0.00
,,8908,СВОБОДИ БУЛЬВ. 6/4/108,,,ВивезенТПВ,6.62,6.55,0.07,0.00,0.07,0.00
,,8947,СВОБОДИ БУЛЬВ. 6/4/147,Волосенко С. В.,,Утрим.буд.,182.80,180.97,1.83,0.00,1.83,0.00
,,8947,СВОБОДИ БУЛЬВ. 6/4/147,Волосенко С. В.,,Домофон,5.95,5.89,0.06,0.00,0.06,0.00
,,8947,СВОБОДИ БУЛЬВ. 6/4/147,Волосенко С. В.,,ВивезенТПВ,6.62,6.55,0.07,0.00,0.07,0.00
,,,,,,,1116.19,1105.02,11.17,0.00,11.17,0.00
Пункт прийому,,,,,Райффайзен,,,,,,,
,,8835,СВОБОДИ БУЛЬВ. 6/4/35,Печерога Г. Й.,,Утрим.буд.,114.40,112.68,1.72,0.00,1.72,0.00
,,8835,СВОБОДИ БУЛЬВ. 6/4/35,Печерога Г. Й.,,Хол.вода,6.38,6.28,0.10,0.00,0.10,0.00
,,8835,СВОБОДИ БУЛЬВ. 6/4/35,Печерога Г. Й.,,Домофон,5.95,5.86,0.09,0.00,0.09,0.00
,,8835,СВОБОДИ БУЛЬВ. 6/4/35,Печерога Г. Й.,,Водовідвед,4.77,4.70,0.07,0.00,0.07,0.00
,,8835,СВОБОДИ БУЛЬВ. 6/4/35,Печерога Г. Й.,,ВивезенТПВ,6.62,6.52,0.10,0.00,0.10,0.00
,,8883,СВОБОДИ БУЛЬВ. 6/4/83,,,Утрим.буд.,183.20,180.45,2.75,0.00,2.75,0.00
,,8883,СВОБОДИ БУЛЬВ. 6/4/83,,,Домофон,5.95,5.86,0.09,0.00,0.09,0.00
,,8883,СВОБОДИ БУЛЬВ. 6/4/83,,,ВивезенТПВ,6.62,6.52,0.10,0.00,0.10,0.00
,,,,,,,333.89,328.87,5.02,0.00,5.02,0.00
Пункт прийому,,,,,ОБ10001,,,,,,,
,,8894,СВОБОДИ БУЛЬВ. 6/4/94,Дудар В. В.,,Утрим.буд.,368.80,365.11,3.69,0.00,3.69,0.00
,,8894,СВОБОДИ БУЛЬВ. 6/4/94,Дудар В. В.,,Хол.вода,56.44,55.88,0.56,0.00,0.56,0.00
,,8894,СВОБОДИ БУЛЬВ. 6/4/94,Дудар В. В.,,Домофон,11.90,11.78,0.12,0.00,0.12,0.00
,,8894,СВОБОДИ БУЛЬВ. 6/4/94,Дудар В. В.,,Водовідвед,44.44,44.00,0.44,0.00,0.44,0.00
,,8894,СВОБОДИ БУЛЬВ. 6/4/94,Дудар В. В.,,ВивезенТПВ,16.99,16.82,0.17,0.00,0.17,0.00
,,8933,СВОБОДИ БУЛЬВ. 6/4/133, Л. О.,,Утрим.буд.,156.00,154.44,1.56,0.00,1.56,0.00
,,8933,СВОБОДИ БУЛЬВ. 6/4/133, Л. О.,,Хол.вода,15.55,15.39,0.16,0.00,0.16,0.00
,,8933,СВОБОДИ БУЛЬВ. 6/4/133, Л. О.,,Домофон,5.95,5.89,0.06,0.00,0.06,0.00
,,8933,СВОБОДИ БУЛЬВ. 6/4/133, Л. О.,,Водовідвед,12.29,12.17,0.12,0.00,0.12,0.00
,,8933,СВОБОДИ БУЛЬВ. 6/4/133, Л. О.,,ВивезенТПВ,6.62,6.55,0.07,0.00,0.07,0.00
,,8978,СВОБОДИ БУЛЬВ. 6/4/178,Акулов М. Г.,,Утрим.буд.,186.00,184.14,1.86,0.00,1.86,0.00
,,8978,СВОБОДИ БУЛЬВ. 6/4/178,Акулов М. Г.,,Хол.вода,116.64,115.47,1.17,0.00,1.17,0.00
,,8978,СВОБОДИ БУЛЬВ. 6/4/178,Акулов М. Г.,,Домофон,5.95,5.89,0.06,0.00,0.06,0.00
,,8978,СВОБОДИ БУЛЬВ. 6/4/178,Акулов М. Г.,,Водовідвед,91.80,90.88,0.92,0.00,0.92,0.00
,,8978,СВОБОДИ БУЛЬВ. 6/4/178,Акулов М. Г.,,ВивезенТПВ,19.86,19.66,0.20,0.00,0.20,0.00
,,9013,СВОБОДИ БУЛЬВ. 6/4/213,Вишневецька Ю. О.,,Хол.вода,116.64,115.47,1.17,0.00,1.17,0.00
,,9013,СВОБОДИ БУЛЬВ. 6/4/213,Вишневецька Ю. О.,,Водовідвед,91.80,90.88,0.92,0.00,0.92,0.00
,,,,,,,1323.67,1310.42,13.25,0.00,13.25,0.00
Пункт прийому,,,,,ПриватБанк,,,,,,,
,,8812,СВОБОДИ БУЛЬВ. 6/4/12,Петриченко В. Ф.,,Утрим.буд.,144.20,142.76,1.44,0.00,1.44,0.00
,,8812,СВОБОДИ БУЛЬВ. 6/4/12,Петриченко В. Ф.,,Хол.вода,19.40,19.21,0.19,0.00,0.19,0.00
,,8812,СВОБОДИ БУЛЬВ. 6/4/12,Петриченко В. Ф.,,Домофон,5.95,5.89,0.06,0.00,0.06,0.00
,,8812,СВОБОДИ БУЛЬВ. 6/4/12,Петриченко В. Ф.,,Водовідвед,15.30,15.15,0.15,0.00,0.15,0.00
,,8812,СВОБОДИ БУЛЬВ. 6/4/12,Петриченко В. Ф.,,ВивезенТПВ,6.62,6.55,0.07,0.00,0.07,0.00
,,8915,СВОБОДИ БУЛЬВ. 6/4/115,Манжуловський О. Ф.,,Утрим.буд.,147.20,145.73,1.47,0.00,1.47,0.00
,,8915,СВОБОДИ БУЛЬВ. 6/4/115,Манжуловський О. Ф.,,Домофон,5.95,5.89,0.06,0.00,0.06,0.00
,,8915,СВОБОДИ БУЛЬВ. 6/4/115,Манжуловський О. Ф.,,ВивезенТПВ,13.24,13.11,0.13,0.00,0.13,0.00
,,8926,СВОБОДИ БУЛЬВ. 6/4/126,Христюк С. П.,,Домофон,11.90,11.78,0.12,0.00,0.12,0.00
,,,,,,,369.76,366.07,3.69,0.00,3.69,0.00
,,Всього,,,,,3330.76,3295.75,35.01,0.00,35.01,0.00
