,Реэстр платежів за 2016-10-18 в розрізі квартир. Установа ОСББ `ЗОДЧИХ 9`,,,,,,,,,,,
,,Особовий рахунок,Ареса,П І Б,,Послуга,Сума платежу грн.,Сума перерах. грн.,Сума збору грн.,ЦМСУ,Приймальник,ЖЕК
Пункт прийому,,,,,УкрПошта,,,,,,,
,,4210,ЗОДЧИХ 9/10,КОЛОДЕЕВА Л. О.,,Утрим.буд.,129.57,128.27,1.30,0.00,1.30,0.00
,,4210,ЗОДЧИХ 9/10,КОЛОДЕЕВА Л. О.,,Хол.вода,42.77,42.34,0.43,0.00,0.43,0.00
,,4210,ЗОДЧИХ 9/10,КОЛОДЕЕВА Л. О.,,Домофон,5.95,5.89,0.06,0.00,0.06,0.00
,,4210,ЗОДЧИХ 9/10,КОЛОДЕЕВА Л. О.,,Водовідвед,33.66,33.32,0.34,0.00,0.34,0.00
,,4210,ЗОДЧИХ 9/10,КОЛОДЕЕВА Л. О.,,ВивезенТПВ,10.07,9.97,0.10,0.00,0.10,0.00
,,4210,ЗОДЧИХ 9/10,КОЛОДЕЕВА Л. О.,,Фонд ЗП,10.00,9.90,0.10,0.00,0.10,0.00
,,4211,ЗОДЧИХ 9/11,КОЛОДЕЕВА Л. О.,,Утрим.буд.,202.23,200.21,2.02,0.00,2.02,0.00
,,4211,ЗОДЧИХ 9/11,КОЛОДЕЕВА Л. О.,,Хол.вода,27.22,26.95,0.27,0.00,0.27,0.00
,,4211,ЗОДЧИХ 9/11,КОЛОДЕЕВА Л. О.,,Домофон,5.95,5.89,0.06,0.00,0.06,0.00
,,4211,ЗОДЧИХ 9/11,КОЛОДЕЕВА Л. О.,,Водовідвед,21.42,21.21,0.21,0.00,0.21,0.00
,,4211,ЗОДЧИХ 9/11,КОЛОДЕЕВА Л. О.,,ВивезенТПВ,10.07,9.97,0.10,0.00,0.10,0.00
,,4211,ЗОДЧИХ 9/11,КОЛОДЕЕВА Л. О.,,Фонд ЗП,10.00,9.90,0.10,0.00,0.10,0.00
,,4280,ЗОДЧИХ 9/80,Бойко К. П.,,Утрим.буд.,90.00,89.10,0.90,0.00,0.90,0.00
,,4280,ЗОДЧИХ 9/80,Бойко К. П.,,Хол.вода,40.00,39.60,0.40,0.00,0.40,0.00
,,4280,ЗОДЧИХ 9/80,Бойко К. П.,,Домофон,5.85,5.79,0.06,0.00,0.06,0.00
,,4280,ЗОДЧИХ 9/80,Бойко К. П.,,Водовідвед,51.00,50.49,0.51,0.00,0.51,0.00
,,4280,ЗОДЧИХ 9/80,Бойко К. П.,,ВивезенТПВ,21.00,20.79,0.21,0.00,0.21,0.00
,,4280,ЗОДЧИХ 9/80,Бойко К. П.,,Фонд ЗП,10.00,9.90,0.10,0.00,0.10,0.00
,,,,,,,726.76,719.49,7.27,0.00,7.27,0.00
Пункт прийому,,,,,ПриватБанк,,,,,,,
,,4216,ЗОДЧИХ 9/16,Брик В. А.,,Утрим.буд.,105.32,104.27,1.05,0.00,1.05,0.00
,,4216,ЗОДЧИХ 9/16,Брик В. А.,,Хол.вода,11.67,11.55,0.12,0.00,0.12,0.00
,,4216,ЗОДЧИХ 9/16,Брик В. А.,,Домофон,5.95,5.89,0.06,0.00,0.06,0.00
,,4216,ЗОДЧИХ 9/16,Брик В. А.,,Водовідвед,9.18,9.09,0.09,0.00,0.09,0.00
,,4216,ЗОДЧИХ 9/16,Брик В. А.,,ВивезенТПВ,5.04,4.99,0.05,0.00,0.05,0.00
,,4216,ЗОДЧИХ 9/16,Брик В. А.,,Фонд ЗП,10.00,9.90,0.10,0.00,0.10,0.00
,,,,,,,147.16,145.69,1.47,0.00,1.47,0.00
,,Всього,,,,,873.92,865.18,8.74,0.00,8.74,0.00
