,Реэстр платежів за 2016-10-18 в розрізі квартир. Установа ОСББ `Миколаївська-8`,,,,,,,,,,,
,,Особовий рахунок,Ареса,П І Б,,Послуга,Сума платежу грн.,Сума перерах. грн.,Сума збору грн.,ЦМСУ,Приймальник,ЖЕК
Пункт прийому,,,,,ОБ10001/01,,,,,,,
,,2276,МИКОЛАЄВСЬКА 8/44,БОЙЧУК С. А.,,Утрим.буд.,118.38,117.20,1.18,0.00,1.18,0.00
,,2276,МИКОЛАЄВСЬКА 8/44,БОЙЧУК С. А.,,Домофон,7.50,7.42,0.08,0.00,0.08,0.00
,,2279,МИКОЛАЄВСЬКА 8/47,Чорпіта О. В.,,Утрим.буд.,310.46,307.36,3.10,0.00,3.10,0.00
,,2279,МИКОЛАЄВСЬКА 8/47,Чорпіта О. В.,,Домофон,15.00,14.85,0.15,0.00,0.15,0.00
,,2279,МИКОЛАЄВСЬКА 8/47,Чорпіта О. В.,,ВивезенТПВ,40.28,39.88,0.40,0.00,0.40,0.00
,,,,,,,491.62,486.71,4.91,0.00,4.91,0.00
Пункт прийому,,,,,УкрПошта,,,,,,,
,,2278,МИКОЛАЄВСЬКА 8/46,Слободяник Л. А.,,Утрим.буд.,155.43,153.88,1.55,0.00,1.55,0.00
,,2278,МИКОЛАЄВСЬКА 8/46,Слободяник Л. А.,,Домофон,7.50,7.42,0.08,0.00,0.08,0.00
,,2278,МИКОЛАЄВСЬКА 8/46,Слободяник Л. А.,,ВивезенТПВ,10.07,9.97,0.10,0.00,0.10,0.00
,,,,,,,173.00,171.27,1.73,0.00,1.73,0.00
Пункт прийому,,,,,ПриватБанк,,,,,,,
,,2295,МИКОЛАЄВСЬКА 8/63,Незгода В. І.,,Утрим.буд.,123.68,122.44,1.24,0.00,1.24,0.00
,,2295,МИКОЛАЄВСЬКА 8/63,Незгода В. І.,,Хол.вода,116.64,115.47,1.17,0.00,1.17,0.00
,,2295,МИКОЛАЄВСЬКА 8/63,Незгода В. І.,,Домофон,7.50,7.42,0.08,0.00,0.08,0.00
,,2295,МИКОЛАЄВСЬКА 8/63,Незгода В. І.,,Водовідвед,91.80,90.88,0.92,0.00,0.92,0.00
,,2295,МИКОЛАЄВСЬКА 8/63,Незгода В. І.,,ВивезенТПВ,40.28,39.88,0.40,0.00,0.40,0.00
,,2300,МИКОЛАЄВСЬКА 8/68,Багрій Н. В.,,Утрим.буд.,112.92,111.79,1.13,0.00,1.13,0.00
,,2300,МИКОЛАЄВСЬКА 8/68,Багрій Н. В.,,Хол.вода,57.59,57.01,0.58,0.00,0.58,0.00
,,2300,МИКОЛАЄВСЬКА 8/68,Багрій Н. В.,,Домофон,7.50,7.42,0.08,0.00,0.08,0.00
,,2300,МИКОЛАЄВСЬКА 8/68,Багрій Н. В.,,Водовідвед,32.86,32.53,0.33,0.00,0.33,0.00
,,2300,МИКОЛАЄВСЬКА 8/68,Багрій Н. В.,,ВивезенТПВ,37.67,37.29,0.38,0.00,0.38,0.00
,,,,,,,628.44,622.13,6.31,0.00,6.31,0.00
,,Всього,,,,,1293.06,1280.11,12.95,0.00,12.95,0.00
