,Реэстр платежів за 2016-10-18 в розрізі квартир. Установа ОСББ 'МОЖАЙСЬКИЙ',,,,,,,,,,,
,,Особовий рахунок,Ареса,П І Б,,Послуга,Сума платежу грн.,Сума перерах. грн.,Сума збору грн.,ЦМСУ,Приймальник,ЖЕК
Пункт прийому,,,,,УкрПошта,,,,,,,
,,2,КИЇВСЬКИЙ ПРОВ. 1-Й 59/2,КУЧЕРЕНКО М. П.,,Утрим.буд.,132.20,130.88,1.32,0.00,1.32,0.00
,,2,КИЇВСЬКИЙ ПРОВ. 1-Й 59/2,КУЧЕРЕНКО М. П.,,Хол.вода,38.90,38.51,0.39,0.00,0.39,0.00
,,2,КИЇВСЬКИЙ ПРОВ. 1-Й 59/2,КУЧЕРЕНКО М. П.,,Водовідвед,30.60,30.29,0.31,0.00,0.31,0.00
,,2,КИЇВСЬКИЙ ПРОВ. 1-Й 59/2,КУЧЕРЕНКО М. П.,,ВивезенТПВ,18.92,18.73,0.19,0.00,0.19,0.00
,,2,КИЇВСЬКИЙ ПРОВ. 1-Й 59/2,КУЧЕРЕНКО М. П.,,Фонд ЗП,103.55,102.51,1.04,0.00,1.04,0.00
,,16,КИЇВСЬКИЙ ПРОВ. 1-Й 59/16,БАЛУХАТА Н. В.,,Утрим.буд.,1600.00,1584.00,16.00,0.00,16.00,0.00
,,16,КИЇВСЬКИЙ ПРОВ. 1-Й 59/16,БАЛУХАТА Н. В.,,Хол.вода,12.00,11.88,0.12,0.00,0.12,0.00
,,16,КИЇВСЬКИЙ ПРОВ. 1-Й 59/16,БАЛУХАТА Н. В.,,Водовідвед,15.30,15.15,0.15,0.00,0.15,0.00
,,16,КИЇВСЬКИЙ ПРОВ. 1-Й 59/16,БАЛУХАТА Н. В.,,ВивезенТПВ,9.45,9.36,0.09,0.00,0.09,0.00
,,17,КИЇВСЬКИЙ ПРОВ. 1-Й 59/17,КАЛІНЧУК В. В.,,Утрим.буд.,68.06,67.38,0.68,0.00,0.68,0.00
,,17,КИЇВСЬКИЙ ПРОВ. 1-Й 59/17,КАЛІНЧУК В. В.,,Хол.вода,11.42,11.31,0.11,0.00,0.11,0.00
,,17,КИЇВСЬКИЙ ПРОВ. 1-Й 59/17,КАЛІНЧУК В. В.,,Водовідвед,6.81,6.74,0.07,0.00,0.07,0.00
,,17,КИЇВСЬКИЙ ПРОВ. 1-Й 59/17,КАЛІНЧУК В. В.,,ВивезенТПВ,15.77,15.61,0.16,0.00,0.16,0.00
,,17,КИЇВСЬКИЙ ПРОВ. 1-Й 59/17,КАЛІНЧУК В. В.,,Фонд ЗП,98.69,97.70,0.99,0.00,0.99,0.00
,,28,КИЇВСЬКИЙ ПРОВ. 1-Й 59/28,ДЕМЧЕНКО В. М.,,Утрим.буд.,138.01,136.63,1.38,0.00,1.38,0.00
,,28,КИЇВСЬКИЙ ПРОВ. 1-Й 59/28,ДЕМЧЕНКО В. М.,,Хол.вода,46.62,46.15,0.47,0.00,0.47,0.00
,,28,КИЇВСЬКИЙ ПРОВ. 1-Й 59/28,ДЕМЧЕНКО В. М.,,Водовідвед,36.72,36.35,0.37,0.00,0.37,0.00
,,28,КИЇВСЬКИЙ ПРОВ. 1-Й 59/28,ДЕМЧЕНКО В. М.,,ВивезенТПВ,25.22,24.97,0.25,0.00,0.25,0.00
,,65,КИЇВСЬКИЙ ПРОВ. 1-Й 59/65,БОЙКО М. В.,,Утрим.буд.,163.93,162.29,1.64,0.00,1.64,0.00
,,65,КИЇВСЬКИЙ ПРОВ. 1-Й 59/65,БОЙКО М. В.,,Хол.вода,27.22,26.95,0.27,0.00,0.27,0.00
,,65,КИЇВСЬКИЙ ПРОВ. 1-Й 59/65,БОЙКО М. В.,,Водовідвед,21.42,21.21,0.21,0.00,0.21,0.00
,,65,КИЇВСЬКИЙ ПРОВ. 1-Й 59/65,БОЙКО М. В.,,ВивезенТПВ,6.31,6.25,0.06,0.00,0.06,0.00
,,,,,,,2627.12,2600.85,26.27,0.00,26.27,0.00
Пункт прийому,,,,,ПриватБанк,,,,,,,
,,50,КИЇВСЬКИЙ ПРОВ. 1-Й 59/50,ЛІСОГОРСЬКИЙ І. А.,,Утрим.буд.,127.72,126.44,1.28,0.00,1.28,0.00
,,50,КИЇВСЬКИЙ ПРОВ. 1-Й 59/50,ЛІСОГОРСЬКИЙ І. А.,,Хол.вода,31.10,30.79,0.31,0.00,0.31,0.00
,,50,КИЇВСЬКИЙ ПРОВ. 1-Й 59/50,ЛІСОГОРСЬКИЙ І. А.,,Водовідвед,27.54,27.26,0.28,0.00,0.28,0.00
,,50,КИЇВСЬКИЙ ПРОВ. 1-Й 59/50,ЛІСОГОРСЬКИЙ І. А.,,ВивезенТПВ,12.61,12.48,0.13,0.00,0.13,0.00
,,50,КИЇВСЬКИЙ ПРОВ. 1-Й 59/50,ЛІСОГОРСЬКИЙ І. А.,,Фонд ЗП,80.67,79.86,0.81,0.00,0.81,0.00
,,,,,,,279.64,276.83,2.81,0.00,2.81,0.00
,,Всього,,,,,2906.76,2877.68,29.08,0.00,29.08,0.00
