,Реэстр платежів за 2016-10-18 в розрізі квартир. Установа ОСББ `Зодчих 3`,,,,,,,,,,,
,,Особовий рахунок,Ареса,П І Б,,Послуга,Сума платежу грн.,Сума перерах. грн.,Сума збору грн.,ЦМСУ,Приймальник,ЖЕК
Пункт прийому,,,,,УкрПошта,,,,,,,
,,3087,ЗОДЧИХ 3/87,,,Утрим.буд.,32.78,32.45,0.33,0.00,0.33,0.00
,,3087,ЗОДЧИХ 3/87,,,Хол.вода,12.31,12.19,0.12,0.00,0.12,0.00
,,3087,ЗОДЧИХ 3/87,,,Домофон,5.95,5.89,0.06,0.00,0.06,0.00
,,3087,ЗОДЧИХ 3/87,,,Водовідвед,9.68,9.58,0.10,0.00,0.10,0.00
,,3087,ЗОДЧИХ 3/87,,,ВивезенТПВ,20.14,19.94,0.20,0.00,0.20,0.00
,,3090,ЗОДЧИХ 3/90,Суперсон П. I.,,Утрим.буд.,119.39,118.20,1.19,0.00,1.19,0.00
,,3090,ЗОДЧИХ 3/90,Суперсон П. I.,,Хол.вода,27.23,26.96,0.27,0.00,0.27,0.00
,,3090,ЗОДЧИХ 3/90,Суперсон П. I.,,Домофон,5.95,5.89,0.06,0.00,0.06,0.00
,,3090,ЗОДЧИХ 3/90,Суперсон П. I.,,Водовідвед,21.42,21.21,0.21,0.00,0.21,0.00
,,3090,ЗОДЧИХ 3/90,Суперсон П. I.,,ВивезенТПВ,10.07,9.97,0.10,0.00,0.10,0.00
,,3133,ЗОДЧИХ 3/133,Луньова О. П.,,Утрим.буд.,170.36,168.66,1.70,0.00,1.70,0.00
,,3133,ЗОДЧИХ 3/133,Луньова О. П.,,Хол.вода,38.88,38.49,0.39,0.00,0.39,0.00
,,3133,ЗОДЧИХ 3/133,Луньова О. П.,,Домофон,5.95,5.89,0.06,0.00,0.06,0.00
,,3133,ЗОДЧИХ 3/133,Луньова О. П.,,Водовідвед,30.60,30.29,0.31,0.00,0.31,0.00
,,3133,ЗОДЧИХ 3/133,Луньова О. П.,,ВивезенТПВ,10.07,9.97,0.10,0.00,0.10,0.00
,,,,,,,520.78,515.58,5.20,0.00,5.20,0.00
Пункт прийому,,,,,ОБ10001,,,,,,,
,,3061,ЗОДЧИХ 3/61,,,Утрим.буд.,52.73,52.20,0.53,0.00,0.53,0.00
,,3061,ЗОДЧИХ 3/61,,,Хол.вода,1.00,0.99,0.01,0.00,0.01,0.00
,,3061,ЗОДЧИХ 3/61,,,Домофон,5.35,5.30,0.05,0.00,0.05,0.00
,,3061,ЗОДЧИХ 3/61,,,Водовідвед,3.05,3.02,0.03,0.00,0.03,0.00
,,3061,ЗОДЧИХ 3/61,,,ВивезенТПВ,30.21,29.91,0.30,0.00,0.30,0.00
,,3129,ЗОДЧИХ 3/129,Туз С. В.,,Фонд ЗП,350.00,346.50,3.50,0.00,3.50,0.00
,,,,,,,442.34,437.92,4.42,0.00,4.42,0.00
Пункт прийому,,,,,ПриватБанк,,,,,,,
,,3019,ЗОДЧИХ 3/19,Бевз Д. В.,,Утрим.буд.,180.08,178.28,1.80,0.00,1.80,0.00
,,3019,ЗОДЧИХ 3/19,Бевз Д. В.,,Хол.вода,39.00,38.61,0.39,0.00,0.39,0.00
,,3019,ЗОДЧИХ 3/19,Бевз Д. В.,,Домофон,5.95,5.89,0.06,0.00,0.06,0.00
,,3019,ЗОДЧИХ 3/19,Бевз Д. В.,,Водовідвед,31.00,30.69,0.31,0.00,0.31,0.00
,,3019,ЗОДЧИХ 3/19,Бевз Д. В.,,ВивезенТПВ,10.07,9.97,0.10,0.00,0.10,0.00
,,3102,ЗОДЧИХ 3/102,Пахомов В. А.,,Утрим.буд.,128.76,127.47,1.29,0.00,1.29,0.00
,,3102,ЗОДЧИХ 3/102,Пахомов В. А.,,Хол.вода,27.23,26.96,0.27,0.00,0.27,0.00
,,3102,ЗОДЧИХ 3/102,Пахомов В. А.,,Домофон,5.95,5.89,0.06,0.00,0.06,0.00
,,3102,ЗОДЧИХ 3/102,Пахомов В. А.,,ВивезенТПВ,10.07,9.97,0.10,0.00,0.10,0.00
,,,,,,,438.11,433.73,4.38,0.00,4.38,0.00
,,Всього,,,,,1401.23,1387.23,14.00,0.00,14.00,0.00
