,Реэстр платежів за 2016-10-18 в розрізі квартир. Установа ОСББ 'Миколаївська-3',,,,,,,,,,,
,,Особовий рахунок,Ареса,П І Б,,Послуга,Сума платежу грн.,Сума перерах. грн.,Сума збору грн.,ЦМСУ,Приймальник,ЖЕК
Пункт прийому,,,,,ОБ10001/01,,,,,,,
,,3385,МИКОЛАЄВСЬКА 3/85,Пилипчук . А.,,Утрим.буд.,107.67,106.59,1.08,0.00,1.08,0.00
,,3385,МИКОЛАЄВСЬКА 3/85,Пилипчук . А.,,Хол.вода,93.09,92.16,0.93,0.00,0.93,0.00
,,3385,МИКОЛАЄВСЬКА 3/85,Пилипчук . А.,,Домофон,7.50,7.42,0.08,0.00,0.08,0.00
,,3385,МИКОЛАЄВСЬКА 3/85,Пилипчук . А.,,Водовідвед,73.27,72.54,0.73,0.00,0.73,0.00
,,3385,МИКОЛАЄВСЬКА 3/85,Пилипчук . А.,,ВивезенТПВ,30.21,29.91,0.30,0.00,0.30,0.00
,,,,,,,311.74,308.62,3.12,0.00,3.12,0.00
Пункт прийому,,,,,УкрПошта,,,,,,,
,,3302,МИКОЛАЄВСЬКА 3/2,СОЛОМКО Д. І.,,Утрим.буд.,74.71,73.96,0.75,0.00,0.75,0.00
,,3302,МИКОЛАЄВСЬКА 3/2,СОЛОМКО Д. І.,,Домофон,7.50,7.42,0.08,0.00,0.08,0.00
,,3302,МИКОЛАЄВСЬКА 3/2,СОЛОМКО Д. І.,,ВивезенТПВ,10.07,9.97,0.10,0.00,0.10,0.00
,,3356,МИКОЛАЄВСЬКА 3/56,РЯБОКОНЬ Л. П.,,Утрим.буд.,236.88,234.51,2.37,0.00,2.37,0.00
,,3356,МИКОЛАЄВСЬКА 3/56,РЯБОКОНЬ Л. П.,,Хол.вода,35.00,34.65,0.35,0.00,0.35,0.00
,,3356,МИКОЛАЄВСЬКА 3/56,РЯБОКОНЬ Л. П.,,Домофон,30.00,29.70,0.30,0.00,0.30,0.00
,,3356,МИКОЛАЄВСЬКА 3/56,РЯБОКОНЬ Л. П.,,Водовідвед,30.06,29.76,0.30,0.00,0.30,0.00
,,3356,МИКОЛАЄВСЬКА 3/56,РЯБОКОНЬ Л. П.,,ВивезенТПВ,40.28,39.88,0.40,0.00,0.40,0.00
,,3361,МИКОЛАЄВСЬКА 3/61,КОРАК І. О.,,Утрим.буд.,175.90,174.14,1.76,0.00,1.76,0.00
,,3361,МИКОЛАЄВСЬКА 3/61,КОРАК І. О.,,Домофон,7.50,7.42,0.08,0.00,0.08,0.00
,,3361,МИКОЛАЄВСЬКА 3/61,КОРАК І. О.,,ВивезенТПВ,40.28,39.88,0.40,0.00,0.40,0.00
,,3361,МИКОЛАЄВСЬКА 3/61,КОРАК І. О.,,Фонд ЗП,85.00,84.15,0.85,0.00,0.85,0.00
,,3365,МИКОЛАЄВСЬКА 3/65,Шульженко Б. В.,,Утрим.буд.,146.29,144.83,1.46,0.00,1.46,0.00
,,3365,МИКОЛАЄВСЬКА 3/65,Шульженко Б. В.,,Хол.вода,31.10,30.79,0.31,0.00,0.31,0.00
,,3365,МИКОЛАЄВСЬКА 3/65,Шульженко Б. В.,,Домофон,7.50,7.42,0.08,0.00,0.08,0.00
,,3365,МИКОЛАЄВСЬКА 3/65,Шульженко Б. В.,,Водовідвед,24.48,24.24,0.24,0.00,0.24,0.00
,,3365,МИКОЛАЄВСЬКА 3/65,Шульженко Б. В.,,ВивезенТПВ,30.21,29.91,0.30,0.00,0.30,0.00
,,3395,МИКОЛАЄВСЬКА 3/95,КРАСИЛЕНКО К. Я.,,Утрим.буд.,74.32,73.58,0.74,0.00,0.74,0.00
,,3395,МИКОЛАЄВСЬКА 3/95,КРАСИЛЕНКО К. Я.,,Домофон,7.50,7.42,0.08,0.00,0.08,0.00
,,3395,МИКОЛАЄВСЬКА 3/95,КРАСИЛЕНКО К. Я.,,ВивезенТПВ,10.07,9.97,0.10,0.00,0.10,0.00
,,3397,МИКОЛАЄВСЬКА 3/97,,,Утрим.буд.,127.28,126.01,1.27,0.00,1.27,0.00
,,3397,МИКОЛАЄВСЬКА 3/97,,,Хол.вода,6.95,6.88,0.07,0.00,0.07,0.00
,,3397,МИКОЛАЄВСЬКА 3/97,,,Домофон,7.50,7.42,0.08,0.00,0.08,0.00
,,3397,МИКОЛАЄВСЬКА 3/97,,,Водовідвед,5.47,5.42,0.05,0.00,0.05,0.00
,,3397,МИКОЛАЄВСЬКА 3/97,,,ВивезенТПВ,20.14,19.94,0.20,0.00,0.20,0.00
,,,,,,,1271.99,1259.27,12.72,0.00,12.72,0.00
Пункт прийому,,,,,ПриватБанк,,,,,,,
,,3332,МИКОЛАЄВСЬКА 3/32,,,Утрим.буд.,176.69,174.92,1.77,0.00,1.77,0.00
,,3332,МИКОЛАЄВСЬКА 3/32,,,Хол.вода,23.33,23.10,0.23,0.00,0.23,0.00
,,3332,МИКОЛАЄВСЬКА 3/32,,,Домофон,7.50,7.42,0.08,0.00,0.08,0.00
,,3332,МИКОЛАЄВСЬКА 3/32,,,Водовідвед,18.36,18.18,0.18,0.00,0.18,0.00
,,3332,МИКОЛАЄВСЬКА 3/32,,,ВивезенТПВ,30.21,29.91,0.30,0.00,0.30,0.00
,,3366,МИКОЛАЄВСЬКА 3/66,Єфременюк О. М.,,Утрим.буд.,94.83,93.88,0.95,0.00,0.95,0.00
,,3366,МИКОЛАЄВСЬКА 3/66,Єфременюк О. М.,,Хол.вода,10.33,10.23,0.10,0.00,0.10,0.00
,,3366,МИКОЛАЄВСЬКА 3/66,Єфременюк О. М.,,Домофон,7.50,7.42,0.08,0.00,0.08,0.00
,,3366,МИКОЛАЄВСЬКА 3/66,Єфременюк О. М.,,Водовідвед,8.12,8.04,0.08,0.00,0.08,0.00
,,3366,МИКОЛАЄВСЬКА 3/66,Єфременюк О. М.,,ВивезенТПВ,40.28,39.88,0.40,0.00,0.40,0.00
,,3381,МИКОЛАЄВСЬКА 3/81,Остапович Я. А.,,Утрим.буд.,350.62,347.11,3.51,0.00,3.51,0.00
,,3381,МИКОЛАЄВСЬКА 3/81,Остапович Я. А.,,Домофон,15.00,14.85,0.15,0.00,0.15,0.00
,,3381,МИКОЛАЄВСЬКА 3/81,Остапович Я. А.,,ВивезенТПВ,80.56,79.75,0.81,0.00,0.81,0.00
,,3381,МИКОЛАЄВСЬКА 3/81,Остапович Я. А.,,Фонд ЗП,85.00,84.15,0.85,0.00,0.85,0.00
,,3394,МИКОЛАЄВСЬКА 3/94,Горобець Т. С.,,Утрим.буд.,148.64,147.15,1.49,0.00,1.49,0.00
,,3394,МИКОЛАЄВСЬКА 3/94,Горобець Т. С.,,Хол.вода,62.21,61.59,0.62,0.00,0.62,0.00
,,3394,МИКОЛАЄВСЬКА 3/94,Горобець Т. С.,,Домофон,15.00,14.85,0.15,0.00,0.15,0.00
,,3394,МИКОЛАЄВСЬКА 3/94,Горобець Т. С.,,Водовідвед,48.96,48.47,0.49,0.00,0.49,0.00
,,3394,МИКОЛАЄВСЬКА 3/94,Горобець Т. С.,,ВивезенТПВ,51.00,50.49,0.51,0.00,0.51,0.00
,,,,,,,1274.14,1261.39,12.75,0.00,12.75,0.00
,,Всього,,,,,2857.87,2829.28,28.59,0.00,28.59,0.00
