,Реэстр платежів за 2016-10-18 в розрізі квартир. Установа ОСББ `Академічний1`,,,,,,,,,,,
,,Особовий рахунок,Ареса,П І Б,,Послуга,Сума платежу грн.,Сума перерах. грн.,Сума збору грн.,ЦМСУ,Приймальник,ЖЕК
Пункт прийому,,,,,УкрПошта,,,,,,,
,,2209,МИКОЛАЄВСЬКА 6/45,Синицька Л. П.,,Утрим.буд.,118.38,117.20,1.18,0.00,1.18,0.00
,,2209,МИКОЛАЄВСЬКА 6/45,Синицька Л. П.,,Хол.вода,38.88,38.49,0.39,0.00,0.39,0.00
,,2209,МИКОЛАЄВСЬКА 6/45,Синицька Л. П.,,Домофон,7.50,7.42,0.08,0.00,0.08,0.00
,,2209,МИКОЛАЄВСЬКА 6/45,Синицька Л. П.,,Водовідвед,30.60,30.29,0.31,0.00,0.31,0.00
,,2209,МИКОЛАЄВСЬКА 6/45,Синицька Л. П.,,ВивезенТПВ,20.14,19.94,0.20,0.00,0.20,0.00
,,,,,,,215.50,213.34,2.16,0.00,2.16,0.00
Пункт прийому,,,,,ОБ10001,,,,,,,
,,2183,МИКОЛАЄВСЬКА 6/19,,,Хол.вода,0.01,0.01,0.00,0.00,0.00,0.00
,,2183,МИКОЛАЄВСЬКА 6/19,,,Домофон,7.50,7.42,0.08,0.00,0.08,0.00
,,2183,МИКОЛАЄВСЬКА 6/19,,,Водовідвед,0.01,0.01,0.00,0.00,0.00,0.00
,,2183,МИКОЛАЄВСЬКА 6/19,,,ВивезенТПВ,20.14,19.94,0.20,0.00,0.20,0.00
,,,,,,,27.66,27.38,0.28,0.00,0.28,0.00
Пункт прийому,,,,,ПриватБанк,,,,,,,
,,2196,МИКОЛАЄВСЬКА 6/32,Плетінка А. Д.,,Утрим.буд.,118.58,117.39,1.19,0.00,1.19,0.00
,,2196,МИКОЛАЄВСЬКА 6/32,Плетінка А. Д.,,Хол.вода,31.12,30.81,0.31,0.00,0.31,0.00
,,2196,МИКОЛАЄВСЬКА 6/32,Плетінка А. Д.,,Домофон,7.50,7.42,0.08,0.00,0.08,0.00
,,2196,МИКОЛАЄВСЬКА 6/32,Плетінка А. Д.,,Водовідвед,24.48,24.24,0.24,0.00,0.24,0.00
,,2196,МИКОЛАЄВСЬКА 6/32,Плетінка А. Д.,,ВивезенТПВ,10.07,9.97,0.10,0.00,0.10,0.00
,,,,,,,191.75,189.83,1.92,0.00,1.92,0.00
,,Всього,,,,,434.91,430.55,4.36,0.00,4.36,0.00
